{
	"info": {
		"_postman_id": "3e0fe3c5-9324-4cd6-8dc0-070ef1dd60b2",
		"name": "Deniz_GoRest_CRUD_Project",
		"schema": "https://schema.getpostman.com/json/collection/v2.1.0/collection.json",
		"_exporter_id": "21933638"
	},
	"item": [
		{
			"name": "https://gorest.co.in/public/v2/users Copy",
			"event": [
				{
					"listen": "test",
					"script": {
						"exec": [
							"pm.test(\"Validate status code is 200\", function () {",
							"    pm.response.to.have.status(200);",
							"});",
							"pm.test(\"Validate that date is present\", function () {",
							"    pm.response.to.have.header(\"Date\");",
							"});",
							"",
							"pm.test(\"Validate that server is present\", function () {",
							"    pm.response.to.have.header(\"Server\");",
							"});",
							"",
							"pm.test(\"Validate that content-Type is present\", function () {",
							"    pm.response.to.have.header(\"Content-Type\");",
							"});",
							"",
							"pm.test(\"Validate responseBody contains id\", function () {",
							"    pm.expect(pm.response.text()).to.include(\"id\");",
							"});",
							"pm.test(\"Validate responseBody contains name\", function () {",
							"    pm.expect(pm.response.text()).to.include(\"name\");",
							"});",
							"pm.test(\"Validate responseBody contains email\", function () {",
							"    pm.expect(pm.response.text()).to.include(\"email\");",
							"});",
							"pm.test(\"Validate responseBody contains gender\", function () {",
							"    pm.expect(pm.response.text()).to.include(\"gender\");",
							"});",
							"pm.test(\"Validate responseBody contains status\", function () {",
							"    pm.expect(pm.response.text()).to.include(\"status\");",
							"});",
							"",
							"",
							""
						],
						"type": "text/javascript"
					}
				}
			],
			"request": {
				"auth": {
					"type": "bearer",
					"bearer": [
						{
							"key": "token",
							"value": "{{Token}}",
							"type": "string"
						}
					]
				},
				"method": "GET",
				"header": [
					{
						"key": "Accept",
						"value": "application/json"
					},
					{
						"key": "Content-Type",
						"value": "application/json"
					},
					{
						"key": "Authorization",
						"value": "Bearer ACCESS-TOKEN"
					}
				],
				"url": {
					"raw": "{{GoRestURL}}/public/v2/users",
					"host": [
						"{{GoRestURL}}"
					],
					"path": [
						"public",
						"v2",
						"users"
					]
				}
			},
			"response": []
		},
		{
			"name": "https://gorest.co.in/public/v2/users",
			"event": [
				{
					"listen": "test",
					"script": {
						"exec": [
							"bodyData = JSON.parse(responseBody)",
							"id = bodyData.id",
							"pm.environment.set(\"projectId\", id)",
							"",
							"name = bodyData.name",
							"pm.environment.set(\"projectName\", name)",
							"",
							"email = bodyData.email",
							"pm.environment.set(\"projectEmail\", email)",
							"",
							"pm.test(\"Validate status code is 201\", function () {",
							"    pm.response.to.have.status(201);",
							"});",
							"",
							"pm.test(\"Validate that ETag is present\", function () {",
							"    pm.response.to.have.header(\"ETag\");",
							"});",
							"",
							"pm.test(\"Validate that Referrer-Policy is present\", function () {",
							"    pm.response.to.have.header(\"Referrer-Policy\");",
							"});",
							"",
							"pm.test(\"Validate that Location is present\", function () {",
							"    pm.response.to.have.header(\"Location\");",
							"});",
							"",
							"pm.test(\"Validate responseBody contains id\", function () {",
							"    pm.expect(pm.response.text()).to.include(\"id\");",
							"});",
							"pm.test(\"Validate responseBody contains name\", function () {",
							"    pm.expect(pm.response.text()).to.include(\"name\");",
							"});",
							"pm.test(\"Validate responseBody contains email\", function () {",
							"    pm.expect(pm.response.text()).to.include(\"email\");",
							"});",
							"pm.test(\"Validate responseBody contains gender\", function () {",
							"    pm.expect(pm.response.text()).to.include(\"gender\");",
							"});",
							"pm.test(\"Validate responseBody contains status\", function () {",
							"    pm.expect(pm.response.text()).to.include(\"status\");",
							"});",
							"",
							"pm.test(\"Validate the value of id in responseBody\", function () {",
							"    var jsonData = pm.response.json();",
							"    pm.expect(jsonData.id).to.eql(id);",
							"});",
							"",
							"pm.test(\"Validate the value of name in responseBody\", function () {",
							"    var jsonData = pm.response.json();",
							"    pm.expect(jsonData.name).to.eql(name);",
							"});",
							"",
							"pm.test(\"Validate the value of email in responseBody\", function () {",
							"    var jsonData = pm.response.json();",
							"    pm.expect(jsonData.email).to.eql(email);",
							"});",
							"",
							"pm.test(\"Validate the value of gender in responseBody\", function () {",
							"    var jsonData = pm.response.json();",
							"    pm.expect(jsonData.gender).to.eql(\"male\");",
							"});",
							"",
							"pm.test(\"Validate the value of status in responseBody\", function () {",
							"    var jsonData = pm.response.json();",
							"    pm.expect(jsonData.status).to.eql(\"active\");",
							"});",
							"",
							"",
							"",
							"",
							"",
							""
						],
						"type": "text/javascript"
					}
				}
			],
			"request": {
				"auth": {
					"type": "bearer",
					"bearer": [
						{
							"key": "token",
							"value": "{{Token}}",
							"type": "string"
						}
					]
				},
				"method": "POST",
				"header": [
					{
						"key": "Accept",
						"value": "application/json"
					},
					{
						"key": "Content-Type",
						"value": "application/json"
					},
					{
						"key": "Authorization",
						"value": "Bearer ACCESS-TOKEN"
					}
				],
				"body": {
					"mode": "raw",
					"raw": "{\n    \"name\": \"{{$randomFullName}}\",\n    \"gender\": \"male\",\n    \"email\": \"{{$randomEmail}}\",\n    \"status\": \"active\"\n}"
				},
				"url": {
					"raw": "{{GoRestURL}}/public/v2/users",
					"host": [
						"{{GoRestURL}}"
					],
					"path": [
						"public",
						"v2",
						"users"
					]
				}
			},
			"response": []
		},
		{
			"name": "https://gorest.co.in/public/v2/users Copy",
			"event": [
				{
					"listen": "test",
					"script": {
						"exec": [
							"pm.test(\"Validate status code is 200\", function () {",
							"    pm.response.to.have.status(200);",
							"});",
							"",
							"pm.test(\"Validate that Expect-CT is present\", function () {",
							"    pm.response.to.have.header(\"Expect-CT\");",
							"});",
							"",
							"pm.test(\"Validate that Transfer-Encoding is present\", function () {",
							"    pm.response.to.have.header(\"Transfer-Encoding\");",
							"});",
							"",
							"pm.test(\"Validate responseBody contains id\", function () {",
							"    pm.expect(pm.response.text()).to.include(\"id\");",
							"});",
							"pm.test(\"Validate responseBody contains name\", function () {",
							"    pm.expect(pm.response.text()).to.include(\"name\");",
							"});",
							"pm.test(\"Validate responseBody contains email\", function () {",
							"    pm.expect(pm.response.text()).to.include(\"email\");",
							"});",
							"pm.test(\"Validate responseBody contains gender\", function () {",
							"    pm.expect(pm.response.text()).to.include(\"gender\");",
							"});",
							"pm.test(\"Validate responseBody contains status\", function () {",
							"    pm.expect(pm.response.text()).to.include(\"status\");",
							"});"
						],
						"type": "text/javascript"
					}
				}
			],
			"request": {
				"auth": {
					"type": "bearer",
					"bearer": [
						{
							"key": "token",
							"value": "{{Token}}",
							"type": "string"
						}
					]
				},
				"method": "GET",
				"header": [
					{
						"key": "Accept",
						"value": "application/json"
					},
					{
						"key": "Content-Type",
						"value": "application/json"
					},
					{
						"key": "Authorization",
						"value": "Bearer ACCESS-TOKEN"
					}
				],
				"url": {
					"raw": "{{GoRestURL}}/public/v2/users/{{projectId}}",
					"host": [
						"{{GoRestURL}}"
					],
					"path": [
						"public",
						"v2",
						"users",
						"{{projectId}}"
					]
				}
			},
			"response": []
		},
		{
			"name": "https://gorest.co.in/public/v2/users/16",
			"event": [
				{
					"listen": "test",
					"script": {
						"exec": [
							"pm.test(\"Validate status code is 200\", function () {",
							"    pm.response.to.have.status(200);",
							"});",
							"",
							"pm.test(\"Validate that TReport-To is present\", function () {",
							"    pm.response.to.have.header(\"Report-To\");",
							"});",
							"",
							"pm.test(\"Validate that NEL is present\", function () {",
							"    pm.response.to.have.header(\"NEL\");",
							"});",
							"",
							"pm.test(\"Validate responseBody contains id\", function () {",
							"    pm.expect(pm.response.text()).to.include(\"id\");",
							"});",
							"pm.test(\"Validate responseBody contains name\", function () {",
							"    pm.expect(pm.response.text()).to.include(\"name\");",
							"});",
							"pm.test(\"Validate responseBody contains email\", function () {",
							"    pm.expect(pm.response.text()).to.include(\"email\");",
							"});",
							"pm.test(\"Validate responseBody contains gender\", function () {",
							"    pm.expect(pm.response.text()).to.include(\"gender\");",
							"});",
							"pm.test(\"Validate responseBody contains status\", function () {",
							"    pm.expect(pm.response.text()).to.include(\"status\");",
							"});"
						],
						"type": "text/javascript"
					}
				}
			],
			"request": {
				"auth": {
					"type": "bearer",
					"bearer": [
						{
							"key": "token",
							"value": "{{Token}}",
							"type": "string"
						}
					]
				},
				"method": "PATCH",
				"header": [
					{
						"key": "Accept",
						"value": "application/json"
					},
					{
						"key": "Content-Type",
						"value": "application/json"
					},
					{
						"key": "Authorization",
						"value": "Bearer ACCESS-TOKEN"
					}
				],
				"body": {
					"mode": "raw",
					"raw": "{\n    \"name\": \"{{$randomFullName}}\",\n    \"email\": \"{{$randomEmail}}\",\n    \"status\": \"active\"\n}"
				},
				"url": {
					"raw": "{{GoRestURL}}/public/v2/users/{{projectId}}",
					"host": [
						"{{GoRestURL}}"
					],
					"path": [
						"public",
						"v2",
						"users",
						"{{projectId}}"
					]
				}
			},
			"response": []
		},
		{
			"name": "https://gorest.co.in/public/v2/users/16",
			"event": [
				{
					"listen": "test",
					"script": {
						"exec": [
							"pm.test(\"Validate status code is 204\", function () {",
							"    pm.response.to.have.status(204);",
							"});",
							"",
							"pm.test(\"Validate that Vary is present\", function () {",
							"    pm.response.to.have.header(\"Vary\");",
							"});",
							"",
							"pm.test(\"Validate that Set-Cookie is present\", function () {",
							"    pm.response.to.have.header(\"Set-Cookie\");",
							"});",
							"",
							""
						],
						"type": "text/javascript"
					}
				}
			],
			"request": {
				"auth": {
					"type": "bearer",
					"bearer": [
						{
							"key": "token",
							"value": "{{Token}}",
							"type": "string"
						}
					]
				},
				"method": "DELETE",
				"header": [
					{
						"key": "Accept",
						"value": "application/json"
					},
					{
						"key": "Content-Type",
						"value": "application/json"
					},
					{
						"key": "Authorization",
						"value": "Bearer ACCESS-TOKEN"
					}
				],
				"url": {
					"raw": "{{GoRestURL}}/public/v2/users/{{projectId}}",
					"host": [
						"{{GoRestURL}}"
					],
					"path": [
						"public",
						"v2",
						"users",
						"{{projectId}}"
					]
				}
			},
			"response": []
		},
		{
			"name": "https://gorest.co.in/public/v2/users",
			"event": [
				{
					"listen": "test",
					"script": {
						"exec": [
							"pm.test(\"Validate status code is 404\", function () {",
							"    pm.response.to.have.status(404);",
							"});",
							"",
							"pm.test(\"Validate that Strict-Transport-Security is present\", function () {",
							"    pm.response.to.have.header(\"Strict-Transport-Security\");",
							"});",
							"",
							"pm.test(\"Validate that X-Runtime is present\", function () {",
							"    pm.response.to.have.header(\"X-Runtime\");",
							"});"
						],
						"type": "text/javascript"
					}
				}
			],
			"request": {
				"auth": {
					"type": "bearer",
					"bearer": [
						{
							"key": "token",
							"value": "{{Token}}",
							"type": "string"
						}
					]
				},
				"method": "GET",
				"header": [
					{
						"key": "Accept",
						"value": "application/json"
					},
					{
						"key": "Content-Type",
						"value": "application/json"
					},
					{
						"key": "Authorization",
						"value": "Bearer ACCESS-TOKEN"
					}
				],
				"url": {
					"raw": "{{GoRestURL}}/public/v2/users/{{projectId}}",
					"host": [
						"{{GoRestURL}}"
					],
					"path": [
						"public",
						"v2",
						"users",
						"{{projectId}}"
					]
				}
			},
			"response": []
		}
	]
}